{
  "private": {
    "layout": "layouts/private.html",
    "app": "dashboard",
    "url": "#/dashboard"
  },
  "services": {
    "security": "http://api.creditexchange.com:5001",
    "queue": "http://api.creditexchange.com:5002",
    "loan": "http://api.creditexchange.com:5012",
    "loanActivityLog": "http://api.creditexchange.com:5022",
    "eventHub": "http://api.creditexchange.com:5004",
    "amortization": "http://api.creditexchange.com:5006",
    "search": "http://api.creditexchange.com:5010",
    "configuration": "http://api.creditexchange.com:5008",
    "inbox": "http://api.creditexchange.com:5011",
    "calendar": "http://api.creditexchange.com:5007",
    "loanFilters": "http://api.creditexchange.com:5017",
    "payment": "http://api.creditexchange.com:5018",
    "loanStatusManagement": "http://api.creditexchange.com:5021",
    "appRegistry": "http://api.creditexchange.com:1337/apps"
  },
  "public": {
    "layout": "layouts/public.html",
    "url": "#/securityLogin",
    "app": "login"
  },
  "base": "http://api.creditexchange.com:5000/app/",
  "apps": {
    "short-app": {
      "src": "short-app/index.html"
    },
    "action-center": {
      "src": "action-center/index.html"
    },
    "enrollment": {
      "src": "enrollment/index.html",
      "layout": "layouts/enrollment.html",
      "public": true,
      "configuration": {}
    },
    "dtm-application": {
      "src": "dtm-application/index.html",
      "public": false
    },
    "appFlow": {
      "src": "appFlow/appFlow.html",
      "configuration": {}
    },
    "navheader": {
      "src": "header/no-search.html",
      "configuration": {}
    },
    "search-inline": {
      "src": "search/inline.html",
      "configuration": {}
    },
    "navigation": {
      "src": "navigation/index.html",
      "configuration": {
        "nodes": [
          {
            "title": "Dashboard",
            "icon": "dashboard",
            "url": "#/dashboard"
          },
          {
            "title": "New Application",
            "icon": "plus",
            "url": "#/dtm-application"
          },
          {
            "title": "Applications",
            "icon": "pencil-square-o",
            "url": "#/applications"
          },
          {
            "title": "Action Center",
            "icon": "bell",
            "url": "#/action-center"
          }
        ]
      }
    },
    "securityLogin": {
      "layout": "layouts/public.html",
      "src": "security/login.html",
      "public": true
    },
    "securityRequest": {
      "layout": "layouts/public.html",
      "src": "security/request.html",
      "public": true
    },
    "securityReset": {
      "layout": "layouts/public.html",
      "src": "security/reset.html",
      "public": true
    },
    "dashboard": {
      "src": "dashboard/index.html"
    },
    "inboxView": {
      "src": "inbox/index.html"
    },
    "message": {
      "src": "inbox/message/index.html"
    },
    "loanFilter": {
      "src": "filter/index.html"
    },
    "applications": {
      "src": "applications/index.html"
    },
    "merchant": {
      "src": "application/index.html"
    },
    "queue": {
      "src": "queue/index.html"
    },
    "merchant-filter": {
      "src": "merchant-filter/index.html"
    },
    "actionCenterActivities": {
      "src": "ui-elements/groups/activities.html",
      "configuration": {}
    },
    "applicationTabs": {
      "src": "ui-elements/groups/tabs.html",
      "configuration": {
        "tabs": []
      }
    },
    "applicationActivities": {
      "src": "ui-elements/groups/activities.html",
      "configuration": {
        "activities": []
      }
    }
  }
}