{
  "services": {
    "security": "http://api.creditexchange.com:5001",
    "queue": "http://api.creditexchange.com:5002",
    "loan": "http://api.creditexchange.com:5012",
    "loanActivityLog": "http://api.creditexchange.com:5022",
    "eventHub": "http://api.creditexchange.com:5004",
    "amortization": "http://api.creditexchange.com:5006",
    "search": "http://api.creditexchange.com:5010",
    "configuration": "http://api.creditexchange.com:5008",
    "inbox": "http://api.creditexchange.com:5011",
    "calendar": "http://api.creditexchange.com:5007",
    "loanFilters": "http://api.creditexchange.com:5017",
    "payment": "http://api.creditexchange.com:5018",
    "loanStatusManagement": "http://api.creditexchange.com:5021",
    "appRegistry": "http://api.creditexchange.com:1337/apps"
  },
  "apps": {
    "navheader": {
      "src": "header/index.html",
      "configuration": {}
    },
    "search-inline": {
      "src": "search/inline.html",
      "configuration": {}
    },
    "navigation": {
      "src": "navigation/index.html",
      "configuration": {
        "nodes": [
          {
            "title": "Merchants",
            "nodes": [
              {
                "title": "Enrollment Initiated",
                "url": "#/merchant-filter/filter:M.01"
              },
              {
                "title": "Business Report Pulled",
                "url": "#/merchant-filter/filter:M.02"
              },
              {
                "title": "Bank Account Pulled",
                "url": "#/merchant-filter/filter:M.03"
              },
              {
                "title": "Pending Review",
                "url": "#/merchant-filter/filter:M.04"
              },
              {
                "title": "Active",
                "url": "#/merchant-filter/filter:M.05"
              },
              {
                "title": "Cancelled",
                "url": "#/merchant-filter/filter:M.06"
              },
              {
                "title": "Declined",
                "url": "#/merchant-filter/filter:M.07"
              },
              {
                "title": "Fraud",
                "url": "#/merchant-filter/filter:M.08"
              },
              {
                "title": "Duplicate",
                "url": "#/merchant-filter/filter:M.09"
              }
            ]
          }
        ]
      }
    },
    "securityLogin": {
      "layout": "layouts/public.html",
      "src": "security/login.html",
      "public": true
    },
    "securityRequest": {
      "layout": "layouts/public.html",
      "src": "security/request.html",
      "public": true
    },
    "securityReset": {
      "layout": "layouts/public.html",
      "src": "security/reset.html",
      "public": true
    },
    "applications": {
      "src": "applications/index.html"
    },
    "merchant": {
      "src": "merchant/index.html"
    },
    "queue": {
      "src": "queue/index.html"
    },
    "merchant-filter": {
      "src": "merchant-filter/index.html"
    },
    "merchantActivities": {
      "src": "ui-elements/groups/activities.html",
      "configuration": {
        "activities": [
          {
            "title": "Modify Status",
            "src": "activities/modify-status.html",
            "dependencies": []
          },
          {
            "title": "Add Bank Account",
            "src": "activities/bank-account.html",
            "configuration": {
              "service": "merchant"
            }
          },
          {
            "title": "Log Activity",
            "src": "merchant/activities/log-activity.html",
            "dependencies": []
          },
          {
            "title": "Send Message",
            "src": "activities/send-message.html",
            "dependencies": []
          },
          {
            "title": "Make Request",
            "src": "merchant/activities/make-request.html",
            "dependencies": []
          }
        ]
      }
    },
    "merchantTabs": {
      "src": "ui-elements/groups/tabs.html",
      "configuration": {
        "tabs": [
          {
            "icon": "list-ul",
            "text": "Applications",
            "src": "merchant/tabs/applications.html"
          },
          {
            "icon": "history",
            "text": "Activity History",
            "src": "tabs/log.html",
            "configuration": {
              "type": "merchant"
            }
          },
          {
            "icon": "dollar",
            "text": "Cash Flow",
            "src": "merchant/tabs/cash-flow.html"
          },
          {
            "icon": "file-text-o",
            "text": "Documents",
            "src": "tabs/documents.html",
            "configuration": {
              "entityType": "merchant"
            }
          },
          {
            "icon": "user",
            "text": "Business",
            "src": "merchant/tabs/business-info.html"
          },
          {
            "icon": "warning",
            "text": "Alerts",
            "src": "tabs/csr-alerts.html",
            "configuration": {
              "entityType": "merchant"
            }
          },
          {
            "icon": "bank",
            "text": "Bank Accounts",
            "src": "tabs/bank-accounts.html",
            "configuration": {
              "entityType": "merchant",
              "service": "merchant"
            }
          }
        ]
      }
    }
  },
  "base": "http://api.creditexchange.com:5000/app/",
  "private": {
    "layout": "layouts/private.html",
    "app": "merchant-filter",
    "url": "#/merchant-filter/filter:M.01"
  },
  "public": {
    "layout": "layouts/public.html",
    "url": "#/securityLogin",
    "app": "login"
  }
}