{
    "my-tenant": {
        "core": {
            "apps": {
                "navheader": {
                "src": "header/index.html",
                "configuration": {}
                }
            },
            "private": {
                "layout": "layouts/private.html",
                "url": "#/dashboard"
            },
            "base": "http://api.creditexchange.com:5000/apps/alloy_CSR/",
            "useRegistry": "True",
            "public": {
                "layout": "layouts/public.html",
                "url": "#/securityLogin"
            },
            "services": {
                "security": "http://api.creditexchange.com:5001",
                "queue": "http://api.creditexchange.com:5002",
                "loan": "http://api.creditexchange.com:5012",
                "loanActivityLog": "http://api.creditexchange.com:5022",
                "eventHub": "http://api.creditexchange.com:5004",
                "amortization": "http://api.creditexchange.com:5006",
                "search": "http://api.creditexchange.com:5010",
                "configuration": "http://api.creditexchange.com:5008",
                "inbox": "http://api.creditexchange.com:5011",
                "calendar": "http://api.creditexchange.com:5007",
                "loanFilters": "http://api.creditexchange.com:5017",
                "payment": "http://api.creditexchange.com:5018",
                "loanStatusManagement": "http://api.creditexchange.com:5021",
                "appFlow": "http://api.creditexchange.com:5024",
                "appRegistry": "http://api.creditexchange.com:1337/apps"
            }
        },
        "lms-portal": {
            "private": {
                "layout": "layouts/private.html",
                "app": "dashboard",
                "url": "#/dashboard"
            },
            "apps": {
                "useRegistry": "True",
                "apps": {
                "navheader": {
                    "src": "header/index.html",
                    "configuration": {}
                },
                "search-inline": {
                    "src": "search/inline.html",
                    "configuration": {}
                },
                "loanTabs": {
                    "src": "loan-view/tabs.html",
                    "configuration": {}
                },
                "navigation": {
                    "src": "navigation/index.html",
                    "configuration": {
                    "nodes": [
                        {
                        "title": "Home",
                        "icon": "home",
                        "url": "#/dashboard"
                        },
                        {
                        "title": "Onboarded",
                        "url": "#/filter:Onboarded/loanFilter"
                        },
                        {
                        "title": "In Service",
                        "url": "#/filter:In Service/loanFilter"
                        },
                        {
                        "title": "Active Loans",
                        "url": "#/filter:Active Loans/loanFilter"
                        },
                        {
                        "title": "Grace Period - Auto",
                        "url": "#/filter:Grace Period - Auto/loanFilter"
                        },
                        {
                        "title": "Grace Period - Non-Auto",
                        "url": "#/filter:Grace Period - Non-Auto/loanFilter"
                        },
                        {
                        "title": "Late (16-30 days)",
                        "url": "#/filter:Late (16-30 days)/loanFilter"
                        },
                        {
                        "title": "Late (31-45 days)",
                        "url": "#/filter:Late (31-45 days)/loanFilter"
                        },
                        {
                        "title": "Accounts on Hold",
                        "url": "#/filter:Accounts on Hold/loanFilter"
                        },
                        {
                        "title": "Fully Paid",
                        "url": "#/filter:Fully Paid/loanFilter"
                        },
                        {
                        "title": "Charged Off",
                        "url": "#/filter:Charged Off/loanFilter"
                        }
                    ]
                    },
                    "auth": true
                },
                "loanview": {
                    "src": "loan-view/index.html",
                    "configuration": {
                    "tabs": [
                        "activity-log.html"
                    ]
                    }
                },
                "securityLogin": {
                    "layout": "layouts/public.html",
                    "src": "security/login.html"
                },
                "securityRequest": {
                    "layout": "layouts/public.html",
                    "src": "security/request.html"
                },
                "securityReset": {
                    "layout": "layouts/public.html",
                    "src": "security/reset.html"
                },
                "dashboard": {
                    "src": "dashboard/index.html"
                },
                "inboxView": {
                    "src": "inbox/index.html"
                },
                "message": {
                    "src": "inbox/message/index.html"
                },
                "loanFilter": {
                    "src": "filter/index.html"
                }
                },
                "base": "http://api.creditexchange.com:5000/apps/alloy_LMS/",
                "services": {
                "security": "http://api.creditexchange.com:5001",
                "queue": "http://api.creditexchange.com:5002",
                "loan": "http://api.creditexchange.com:5012",
                "loanActivityLog": "http://api.creditexchange.com:5022",
                "eventHub": "http://api.creditexchange.com:5004",
                "amortization": "http://api.creditexchange.com:5006",
                "search": "http://api.creditexchange.com:5010",
                "configuration": "http://api.creditexchange.com:5008",
                "inbox": "http://api.creditexchange.com:5011",
                "calendar": "http://api.creditexchange.com:5007",
                "loanFilters": "http://api.creditexchange.com:5017",
                "payment": "http://api.creditexchange.com:5018",
                "loanStatusManagement": "http://api.creditexchange.com:5021",
                "appRegistry": "http://api.creditexchange.com:1337/apps"
                },
                "public": {
                "layout": "layouts/public.html",
                "url": "#/securityLogin",
                "app": "login"
                },
                "private": {
                "layout": "layouts/private.html",
                "app": "dashboard",
                "url": "#/dashboard"
                }
            },
            "base": "http://api.creditexchange.com:5000/apps/alloy_LMS/",
            "public": {
                "layout": "layouts/public.html",
                "url": "#/securityLogin",
                "app": "login"
            },
            "useRegistry": "True",
            "services": {
                "security": "http://api.creditexchange.com:5001",
                "queue": "http://api.creditexchange.com:5002",
                "loan": "http://api.creditexchange.com:5012",
                "loanActivityLog": "http://api.creditexchange.com:5022",
                "eventHub": "http://api.creditexchange.com:5004",
                "amortization": "http://api.creditexchange.com:5006",
                "search": "http://api.creditexchange.com:5010",
                "configuration": "http://api.creditexchange.com:5008",
                "inbox": "http://api.creditexchange.com:5011",
                "calendar": "http://api.creditexchange.com:5007",
                "loanFilters": "http://api.creditexchange.com:5017",
                "payment": "http://api.creditexchange.com:5018",
                "loanStatusManagement": "http://api.creditexchange.com:5021",
                "appRegistry": "http://api.creditexchange.com:1337/apps"
            }
        },
        "alloy": {
            "services": {
                "security": "http://api.creditexchange.com:5001",
                "queue": "http://api.creditexchange.com:5002",
                "loan": "http://api.creditexchange.com:5012",
                "loanActivityLog": "http://api.creditexchange.com:5022",
                "eventHub": "http://api.creditexchange.com:5004",
                "amortization": "http://api.creditexchange.com:5006",
                "search": "http://api.creditexchange.com:5010",
                "configuration": "http://api.creditexchange.com:5008",
                "inbox": "http://api.creditexchange.com:5011",
                "calendar": "http://api.creditexchange.com:5007",
                "loanFilters": "http://api.creditexchange.com:5017",
                "payment": "http://api.creditexchange.com:5018",
                "loanStatusManagement": "http://api.creditexchange.com:5021",
                "decisionEngine": "http://api.creditexchange.com:5025"
            },
            "base": "http://api.creditexchange.com:8080",
            "login": "http://api.creditexchange.com:9002/login.html",
            "home": "http://api.creditexchange.com:9002/#/dashboard",
            "appToken": "eyJhbGciOiJIUzI1NiIsInR5cCI6IkpXVCJ9.eyJpc3MiOiJteS1hcHAiLCJpYXQiOiIyMDE1LTExLTE0VDAwOjUxOjE2LjI0MTczNTZaIiwiZXhwIjoiMjAxNi0xMS0xNFQwMDo1MDo1Ni43Njc0NzY0WiIsInN1YiI6ImpvaG5zbWl0aCIsInRlbmFudCI6Im15LXRlbmFudCIsInNjb3BlIjpbImFtb3J0aXphdGlvbi9zY2hlZHVsZSIsImxvYW5zL2RvY3VtZW50cy91cGxvYWQiXSwiSXNWYWxpZCI6ZmFsc2V9.F_0aDeBgLpNGBiD5IVVAgEN07swGpnbhg8-yTWFzqX0",
            "log-activity": {
                "options": [
                    "No Answer",
                    "Left Message",
                    "Spoke to Client - Cannot Pay",
                    "Wrong Number/Disconnected",
                    "Spoke to Client - Payment Collected",
                    "Spoke to Client - Payment Scheduled"
                ]
            },
            "onboarding": {
                "LoanPurpose": [
                    "CreditCardRefinancing",
                    "DebtConsolidation",
                    "HomeImprovement",
                    "MajorPurchase",
                    "HomeBuying",
                    "CarFinancing",
                    "GreenLoan",
                    "Vacation",
                    "MovingAndRelocation",
                    "MedicalExpenses"
                ]
            },
            "filters": {
                "Onboarded": "/status/100.02",
                "In Service": "/status/100.03",
                "Active Loans": "/status/100",
                "Grace Period - Auto": "/in-grace-period/ACH",
                "Grace Period - Non-Auto": "/in-grace-period/Check",
                "Late (16-30 days)": "/late/16/to/30/days",
                "Late (31-45 days)": "/late/31/to/45/days",
                "Accounts on Hold": "/status/500",
                "Fully Paid": "/status/700",
                "Charged Off": "/status/600"
            },
             "loan-fees": {
                "codes": {
                    "Origination Fee": {
                        "code": "142",
                        "amount": "50.00"
                    },
                    "Late Fee": {
                        "code": "150",
                        "amount": "100.00"
                    },
                    "ACH Return Fee": {
                        "code": "180",
                        "amount": "340.00"
                    },
                    "Check Returned Fee": {
                        "code": "182",
                        "amount": "0.00"
                    },
                    "Check Processing Fee": {
                        "code": "103",
                        "amount": "0.00"
                    },
                    "Write Off Fee": {
                        "code": "452",
                        "amount": "0.00"
                    },
                    "Forbearance Fee": {
                        "code": "626",
                        "amount": "0.00"
                    },
                    "Modification Fee": {
                        "code": "724",
                        "amount": "0.00"
                    },
                    "Fee (Other)": {
                        "code": "140",
                        "amount": "0.00"
                    }
                }
            }
        },
        "security-identity": {
            "sessionTimeout": 3000,
            "tokenTimeout": 60,
            "roles": {
                "admin": [
                    "{*any}"
                ],
                "csr": [
                    "{*any}"
                ]
            }
        },
        "tenant": {
            "name": "my-tenant",
            "timezone": "America/Detroit",
            "paymentTimeLimit": "19"
        },
        "amortization": {
            "calendarType": "360",
            "payoffPeriod": "0",
            "extraPaymentInterestType": "simple"
        },
        "calendar": {
            "dates": {
            "Saturday": "Weekend",
            "Sunday": "Weekend",
            "2015-01-01": "Holiday",
            "2015-01-19": "Holiday",
            "2015-02-16": "Holiday",
            "2015-05-25": "Holiday",
            "2015-07-03": "Holiday",
            "2015-09-07": "Holiday",
            "2015-10-12": "Holiday",
            "2015-11-11": "Holiday",
            "2015-11-26": "Holiday",
            "2015-12-25": "Holiday",
            "2016-01-01": "Holiday",
            "2016-01-18": "Holiday",
            "2016-02-15": "Holiday",
            "2016-05-30": "Holiday",
            "2016-07-04": "Holiday",
            "2016-09-05": "Holiday",
            "2016-10-10": "Holiday",
            "2016-11-11": "Holiday",
            "2016-11-24": "Holiday",
            "2016-12-26": "Holiday",
            "2017-01-02": "Holiday",
            "2017-01-16": "Holiday",
            "2017-02-20": "Holiday",
            "2017-05-29": "Holiday",
            "2017-07-04": "Holiday",
            "2017-09-04": "Holiday",
            "2017-10-09": "Holiday",
            "2017-11-10": "Holiday",
            "2017-11-23": "Holiday",
            "2017-12-25": "Holiday",
            "2018-01-01": "Holiday",
            "2018-01-15": "Holiday",
            "2018-02-19": "Holiday",
            "2018-05-28": "Holiday",
            "2018-07-04": "Holiday",
            "2018-09-03": "Holiday",
            "2018-10-08": "Holiday",
            "2018-11-12": "Holiday",
            "2018-11-22": "Holiday",
            "2018-12-25": "Holiday",
            "2019-01-01": "Holiday",
            "2019-01-21": "Holiday",
            "2019-02-18": "Holiday",
            "2019-05-27": "Holiday",
            "2019-07-04": "Holiday",
            "2019-09-02": "Holiday",
            "2019-10-14": "Holiday",
            "2019-11-11": "Holiday",
            "2019-11-28": "Holiday",
            "2019-12-25": "Holiday",
            "2020-01-01": "Holiday",
            "2020-01-20": "Holiday",
            "2020-02-17": "Holiday",
            "2020-05-25": "Holiday",
            "2020-07-03": "Holiday",
            "2020-09-07": "Holiday",
            "2020-10-12": "Holiday",
            "2020-11-11": "Holiday",
            "2020-11-26": "Holiday",
            "2020-12-25": "Holiday",
            "2021-01-01": "Holiday",
            "2021-01-18": "Holiday",
            "2021-02-15": "Holiday",
            "2021-05-31": "Holiday",
            "2021-07-05": "Holiday",
            "2021-09-06": "Holiday",
            "2021-10-11": "Holiday",
            "2021-11-11": "Holiday",
            "2021-11-25": "Holiday",
            "2021-12-24": "Holiday",
            "2021-12-31": "Holiday",
            "2022-01-17": "Holiday",
            "2022-02-21": "Holiday",
            "2022-05-30": "Holiday",
            "2022-07-04": "Holiday",
            "2022-09-05": "Holiday",
            "2022-10-10": "Holiday",
            "2022-11-11": "Holiday",
            "2022-11-24": "Holiday",
            "2022-12-26": "Holiday",
            "2023-01-02": "Holiday",
            "2023-01-16": "Holiday",
            "2023-02-20": "Holiday",
            "2023-05-29": "Holiday",
            "2023-07-04": "Holiday",
            "2023-09-04": "Holiday",
            "2023-10-09": "Holiday",
            "2023-11-10": "Holiday",
            "2023-11-23": "Holiday",
            "2023-12-25": "Holiday",
            "2024-01-01": "Holiday",
            "2024-01-15": "Holiday",
            "2024-02-19": "Holiday",
            "2024-05-27": "Holiday",
            "2024-07-04": "Holiday",
            "2024-09-02": "Holiday",
            "2024-10-14": "Holiday",
            "2024-11-11": "Holiday",
            "2024-11-28": "Holiday",
            "2024-12-25": "Holiday",
            "2025-01-01": "Holiday",
            "2025-01-20": "Holiday",
            "2025-02-17": "Holiday",
            "2025-05-26": "Holiday",
            "2025-07-04": "Holiday",
            "2025-09-01": "Holiday",
            "2025-10-13": "Holiday",
            "2025-11-11": "Holiday",
            "2025-11-27": "Holiday",
            "2025-12-25": "Holiday",
            "2026-01-01": "Holiday",
            "2026-01-19": "Holiday",
            "2026-02-16": "Holiday",
            "2026-05-25": "Holiday",
            "2026-07-03": "Holiday",
            "2026-09-07": "Holiday",
            "2026-10-12": "Holiday",
            "2026-11-11": "Holiday",
            "2026-11-26": "Holiday",
            "2026-12-25": "Holiday",
            "2027-01-01": "Holiday",
            "2027-01-18": "Holiday",
            "2027-02-15": "Holiday",
            "2027-05-31": "Holiday",
            "2027-07-05": "Holiday",
            "2027-09-06": "Holiday",
            "2027-10-11": "Holiday",
            "2027-11-11": "Holiday",
            "2027-11-25": "Holiday",
            "2027-12-24": "Holiday",
            "2027-12-31": "Holiday",
            "2028-01-17": "Holiday",
            "2028-02-21": "Holiday",
            "2028-05-29": "Holiday",
            "2028-07-04": "Holiday",
            "2028-09-04": "Holiday",
            "2028-10-09": "Holiday",
            "2028-11-10": "Holiday",
            "2028-11-23": "Holiday",
            "2028-12-25": "Holiday",
            "2029-01-01": "Holiday",
            "2029-01-15": "Holiday",
            "2029-02-19": "Holiday",
            "2029-05-28": "Holiday",
            "2029-07-04": "Holiday",
            "2029-09-03": "Holiday",
            "2029-10-08": "Holiday",
            "2029-11-12": "Holiday",
            "2029-11-22": "Holiday",
            "2029-12-25": "Holiday",
            "2030-01-01": "Holiday",
            "2030-01-21": "Holiday",
            "2030-02-18": "Holiday",
            "2030-05-27": "Holiday",
            "2030-07-04": "Holiday",
            "2030-09-02": "Holiday",
            "2030-10-14": "Holiday",
            "2030-11-11": "Holiday",
            "2030-11-28": "Holiday",
            "2030-12-25": "Holiday"
            }
        },
        "notifications": {
            "MasterTemplate": ""
        },
        "notifications-sendgrid": {
            "ApiKey": "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",
            "FromName": "LendFoundry Development",
            "FromAddress": "development@lendfoundry.com"
        },
        "loan": {
            "schedule": {
                "gracePeriod": 10
            },
            "loanStatus": [
                {
                    "code": "100.01",
                    "name": "OnBoarding",
                    "labelStyle": "",
                    "labelName": "",
                    "actions": null,
                    "transitions": [
                    "100.02"
                    ]
                },
                {
                    "code": "100.02",
                    "name": "OnBoarded",
                    "labelStyle": "label-primary",
                    "labelName": "Active",
                    "actions": null,
                    "transitions": [
                    "100.03"
                    ]
                },
                {
                    "code": "100.03",
                    "name": "InService",
                    "labelStyle": "label-primary",
                    "labelName": "Active",
                    "actions": [
                    "AutoACH",
                    "AccrueInterest",
                    "ManualACH",
                    "NonAutoPay"
                    ],
                    "transitions": [
                    "100.04",
                    "100.07",
                    "100.08",
                    "100.09",
                    "200.01",
                    "200.02",
                    "200.03",
                    "200.04",
                    "200.05",
                    "200.06",
                    "300.02",
                    "300.05"
                    ]
                },
                {
                    "code": "100.04",
                    "name": "Delinquent",
                    "labelStyle": "label-danger",
                    "labelName": "Late - Delinquent",
                    "actions": [
                    "AutoACH",
                    "AccrueInterest",
                    "ManualACH",
                    "NonAutoPay"
                    ],
                    "transitions": [
                    "100.03",
                    "100.05",
                    "100.07",
                    "100.08",
                    "100.09",
                    "200.01",
                    "200.02",
                    "200.03",
                    "200.04",
                    "200.05",
                    "200.06",
                    "300.01",
                    "300.02",
                    "300.05"
                    ]
                },
                {
                    "code": "100.05",
                    "name": "Collections",
                    "labelStyle": "label-danger",
                    "labelName": "Late - Collections",
                    "actions": [
                    "AccrueInterest",
                    "ManualACH",
                    "NonAutoPay"
                    ],
                    "transitions": [
                    "100.03",
                    "100.04",
                    "100.06",
                    "100.09",
                    "200.01",
                    "200.02",
                    "200.03",
                    "200.04",
                    "200.05",
                    "200.06",
                    "300.01",
                    "300.02",
                    "300.05"
                    ]
                },
                {
                    "code": "100.06",
                    "name": "SkipTrace",
                    "labelStyle": "label-danger",
                    "labelName": "Late - SkipTrace",
                    "actions": [
                    "AccrueInterest",
                    "ManualACH",
                    "NonAutoPay"
                    ],
                    "transitions": [
                    "100.03",
                    "100.04",
                    "100.05",
                    "100.09",
                    "300.01",
                    "300.02",
                    "300.05"
                    ]
                },
                {
                    "code": "100.07",
                    "name": "Forbearance",
                    "labelStyle": "label-primary",
                    "labelName": "Active - Forbearance",
                    "actions": [
                    "AutoACH",
                    "AccrueInterest",
                    "ManualACH",
                    "NonAutoPay"
                    ],
                    "transitions": [
                    "100.03",
                    "100.04",
                    "100.08",
                    "100.09",
                    "300.01",
                    "300.02",
                    "300.05"
                    ]
                },
                {
                    "code": "100.08",
                    "name": "CivilReliefAct",
                    "labelStyle": "label-primary",
                    "labelName": "Active - CivilRelief",
                    "actions": [
                    "AutoACH",
                    "AccrueInterest",
                    "ManualACH",
                    "NonAutoPay"
                    ],
                    "transitions": [
                    "100.03",
                    "100.04",
                    "100.08",
                    "100.09",
                    "300.01",
                    "300.02",
                    "300.05"
                    ]
                },
                {
                    "code": "100.09",
                    "name": "Bankruptcy",
                    "labelStyle": "label-danger",
                    "labelName": "Late - Bankruptcy",
                    "actions": [
                    "AccrueInterest",
                    "ManualACH",
                    "NonAutoPay"
                    ],
                    "transitions": [
                    "300.03",
                    "300.04",
                    "300.05"
                    ]
                },
                {
                    "code": "200.01",
                    "name": "Legal",
                    "labelStyle": "label-info",
                    "labelName": "Legal",
                    "actions": [
                    "AccrueInterest",
                    "ManualACH",
                    "NonAutoPay"
                    ],
                    "transitions": [
                    "100.03",
                    "100.04",
                    "100.05",
                    "100.07",
                    "100.08",
                    "100.09",
                    "200.02",
                    "200.03",
                    "200.04",
                    "200.05",
                    "200.06",
                    "300.01",
                    "300.02",
                    "300.05"
                    ]
                },
                {
                    "code": "200.02",
                    "name": "Research",
                    "labelStyle": "label-info",
                    "labelName": "Research",
                    "actions": [
                    "AccrueInterest",
                    "ManualACH",
                    "NonAutoPay"
                    ],
                    "transitions": [
                    "100.03",
                    "100.04",
                    "100.05",
                    "100.07",
                    "100.08",
                    "100.09",
                    "200.02",
                    "200.03",
                    "200.04",
                    "200.05",
                    "200.06",
                    "300.01",
                    "300.02",
                    "300.05"
                    ]
                },
                {
                    "code": "200.03",
                    "name": "Fraud",
                    "labelStyle": "label-info",
                    "labelName": "Fraud",
                    "actions": [
                    "AccrueInterest",
                    "ManualACH",
                    "NonAutoPay"
                    ],
                    "transitions": [
                    "100.03",
                    "100.04",
                    "100.05",
                    "100.07",
                    "100.08",
                    "100.09",
                    "200.02",
                    "200.03",
                    "200.04",
                    "200.05",
                    "200.06",
                    "300.01",
                    "300.02",
                    "300.05"
                    ]
                },
                {
                    "code": "200.04",
                    "name": "Other Issues",
                    "labelStyle": "label-info",
                    "labelName": "Other",
                    "actions": [
                    "AccrueInterest",
                    "ManualACH",
                    "NonAutoPay"
                    ],
                    "transitions": [
                    "100.03",
                    "100.04",
                    "100.05",
                    "100.07",
                    "100.08",
                    "100.09",
                    "200.02",
                    "200.03",
                    "200.04",
                    "200.05",
                    "200.06",
                    "300.01",
                    "300.02",
                    "300.05"
                    ]
                },
                {
                    "code": "200.05",
                    "name": "Incarcerated",
                    "labelStyle": "label-info",
                    "labelName": "Incarcerated",
                    "actions": [
                    "AutoACH",
                    "AccrueInterest",
                    "ManualACH",
                    "NonAutoPay"
                    ],
                    "transitions": [
                    "100.03",
                    "100.04",
                    "100.05",
                    "100.07",
                    "100.08",
                    "100.09",
                    "200.02",
                    "200.03",
                    "200.04",
                    "200.05",
                    "200.06",
                    "300.01",
                    "300.02",
                    "300.05"
                    ]
                },
                {
                    "code": "200.06",
                    "name": "Cease & Desist",
                    "labelStyle": "label-info",
                    "labelName": "Legal - Cease & Desist",
                    "actions": [
                    "AccrueInterest",
                    "ManualACH",
                    "NonAutoPay"
                    ],
                    "transitions": [
                    "100.03",
                    "100.04",
                    "100.05",
                    "100.07",
                    "100.08",
                    "100.09",
                    "200.02",
                    "200.03",
                    "200.04",
                    "200.05",
                    "200.06",
                    "300.01",
                    "300.02",
                    "300.05"
                    ]
                },
                {
                    "code": "300.01",
                    "name": "Charged Off",
                    "labelStyle": "label-default",
                    "labelName": "Closed - Charged Off",
                    "actions": null,
                    "transitions": null
                },
                {
                    "code": "300.02",
                    "name": "Deceased",
                    "labelStyle": "label-default",
                    "labelName": "Closed - Deceased",
                    "actions": null,
                    "transitions": null
                },
                {
                    "code": "300.03",
                    "name": "Bankruptcy - PaidOff",
                    "labelStyle": "label-default",
                    "labelName": "Closed - BK Paid in Full",
                    "actions": null,
                    "transitions": null
                },
                {
                    "code": "300.04",
                    "name": "Bankruptcy - Discharged",
                    "labelStyle": "label-default",
                    "labelName": "Closed - BK Discharged",
                    "actions": null,
                    "transitions": null
                },
                {
                    "code": "300.05",
                    "name": "PaidOff",
                    "labelStyle": "label-default",
                    "labelName": "Closed - Paid in Full",
                    "actions": null,
                    "transitions": null
                }
                ],
            "statusMapping": {
                "100.01": ["100.02"],
                "100.02": ["100.03"],
                "100.03": ["100.04", "100.07", "100.08", "100.09", "200.01", "200.02", "200.03", "200.04", "200.05", "200.06", "300.02", "300.05"],
                "100.04": ["100.03", "100.05", "100.07", "100.08", "100.09", "200.01", "200.02", "200.03", "200.04", "200.05", "200.06", "300.01", "300.02", "300.05"],
                "100.05": ["100.03", "100.04", "100.06", "100.09", "200.01", "200.02", "200.03", "200.04", "200.05", "200.06", "300.01", "300.02", "300.05"],
                "100.06": ["100.03", "100.04", "100.05", "100.09", "300.01", "300.02", "300.05"],
                "100.07": ["100.03", "100.04", "100.05", "100.09", "300.01", "300.02", "300.05"],
                "100.08": ["100.03", "100.04", "100.05", "100.09", "300.01", "300.02", "300.05"],
                "100.09": ["300.03", "300.04"],
                "200.01": ["100.03", "100.04", "100.05", "100.07", "100.08", "100.09", "200.02", "200.03", "200.04", "200.05", "200.06", "300.01", "300.02", "300.05"],
                "200.02": ["100.03", "100.04", "100.05", "100.07", "100.08", "100.09", "200.01", "200.03", "200.04", "200.05", "200.06", "300.01", "300.02", "300.05"],
                "200.03": ["100.03", "100.04", "100.05", "100.07", "100.08", "100.09", "200.01", "200.02", "200.04", "200.05", "200.06", "300.01", "300.02", "300.05"],
                "200.04": ["100.03", "100.04", "100.05", "100.07", "100.08", "100.09", "200.01", "200.02", "200.03", "200.05", "200.06", "300.01", "300.02", "300.05"],
                "200.05": ["100.03", "100.04", "100.05", "100.07", "100.08", "100.09", "200.01", "200.02", "200.03", "200.04", "200.06", "300.01", "300.02", "300.05"],
                "200.06": ["100.03", "100.04", "100.05", "100.07", "100.08", "100.09", "200.01", "200.03", "200.04", "200.05", "200.06", "300.01", "300.02", "300.05"],
                "300.01": [],
                "300.02": [],
                "300.03": [],
                "300.04": [],
                "300.05": []
            }
        },
        "investors": {
            "investors": [
            {
                "id": "1001",
                "name": "Cross River Bank",
                "bankAccount": {
                "accountType": "Checking",
                "accountNumber": "",
                "routingNumber": "",
                "bankName": "Cross River Bank"
                }
            },
            {
                "id": "1002",
                "name": "ECO CH LLC FL",
                "bankAccount": {
                "accountType": "checking",
                "accountNumber": "2000510344",
                "routingNumber": "021214273",
                "bankName": "Cross River Bank"
                }
            },
            {
                "id": "1003",
                "name": "EF CH LLC FL",
                "bankAccount": {
                "accountType": "checking",
                "accountNumber": "2000510336",
                "routingNumber": "021214273",
                "bankName": "Cross River Bank"
                }
            },
            {
                "id": "1004",
                "name": "ECO CH LLC SEC",
                "bankAccount": {
                "accountType": "checking",
                "accountNumber": "2000510344",
                "routingNumber": "021214273",
                "bankName": "Cross River Bank"
                }
            },
            {
                "id": "1005",
                "name": "EF CH LLC SEC",
                "bankAccount": {
                "accountType": "checking",
                "accountNumber": "2000510336",
                "routingNumber": "021214273",
                "bankName": "Cross River Bank"
                }
            },
            {
                "id": "1007",
                "name": "Performance Trust",
                "bankAccount": {
                "accountType": "checking",
                "accountNumber": "",
                "routingNumber": "",
                "bankName": ""
                }
            }
            ]
        },
        "loan-activity-log": {
            "events": [
            {
                "eventName": "LoanOnboarded",
                "titleExpression": "Loan Onboarded",
                "descriptionExpression": "Loan {Data.ReferenceNumber} onboarded",
                "loanReferenceNumberExpression": "{Data.ReferenceNumber}"
            },
            {
                "eventName": "PaymentAdded",
                "titleExpression": "Payment Added",
                "descriptionExpression": "Payment of ${Data.Amount} via {Data.Method} added as {Data.Type} for {Data.DueDate}",
                "loanReferenceNumberExpression": "{Data.LoanReferenceNumber}"
            },
            {
                "eventName": "PaymentReceived",
                "titleExpression": "Payment Received",
                "descriptionExpression": "Payment of {Data.Amount} via {Data.Method} received as ${Data.Type} for {Data.DueDate}. Attempt count ${Data.Attempts}",
                "loanReferenceNumberExpression": "{Data.LoanReferenceNumber}"
            },
            {
                "eventName": "PaymentFailed",
                "titleExpression": "Payment Failed",
                "descriptionExpression": "Payment of ${Data.Amount} via {Data.Method} attempted as {Data.Type} failed for {Data.DueDate}. Attempt count {Data.Attempts}",
                "loanReferenceNumberExpression": "{Data.LoanReferenceNumber}"
            },
            {
                "eventName": "PaymentCancelled",
                "titleExpression": "Payment Cancelled",
                "descriptionExpression": "{Data.Type} Payment of ${Data.Amount} scheduled for {Data.DueDate} via {Data.Method} is cancelled ",
                "loanReferenceNumberExpression": "{Data.LoanReferenceNumber}"
            },
            {
                "eventName": "LoanActivityLogged",
                "titleExpression": "{Data.Title}",
                "descriptionExpression": "{Data.Description}",
                "loanReferenceNumberExpression": "{Data.LoanReferenceNumber}"
            },
            {
                "eventName": "AchInstructionRejected",
                "titleExpression": "{{#ifc Reason ='R01'}}insufficient funds {{else}}Unknown reason{{/ifc}}",
                "descriptionExpression": "Payment via ACH for  attempted for  has failed due to {{#ifc Reason ='R01'}}insufficient funds {{else}}Unknown reason{{/ifc}} for {Data.Reason} {Data.Description} ",
                "loanReferenceNumberExpression": "{Data.ReferenceNumber}"
            }
            ]
        },
        "loan-payment": {
            "maxNumberOfAttempts": "2",
            "defaultFundingSource": "crb",
            "attemptIntervalInDays": "1",
            "checkProcessingFeeCode" : "103",
            "checkProcessingFeeAmount" : "5.00"
        },
        "activity-log": {
            "events": [
            {
                "eventName": "LoanActivityLogged",
                "titleExpression": "{Data.Title}",
                "descriptionExpression": "{Data.Description}",
                "loanReferenceNumberExpression": "{Data.LoanReferenceNumber}"
            }
            ]
        },
        "loan-fees": {
            "codes": {
                "Origination Fee": "142",
                "Late Fee": "150",
                "ACH Return Fee": "180",
                "Check Returned Fee": "182",
                "Check Processing Fee": "103",
                "Write Off Fee": "452",
                "Forbearance Fee": "626",
                "Modification Fee": "724",
                "Fee (Other)": "140"
            }
        },
        "ach": {
            "fileBlockConfiguration": {
            "FileHeader": {
                "BlockingFactor": 10,
                "FormatCode": 1,
                "Modifier": "A",
                "PriorityCode": 1,
                "RecordSize": 94
            },
            "BatchHeader": {
                "OriginatorStatusCode": 1,
                "ServiceClassCode": 200,
                "StandardEntryClassCode": "WEB"
            }
            },
            "providerConfiguration": {
            "Host": "98.171.253.53",
            "InboxLocation": "/nacha/ACH/Inbound",
            "OutboxLocation": "/nacha/ACH/Outbound",
            "Port": 1731,
            "Protocol": "SFTP",
            "SshHostKey": "",
            "Username": "ach",
            "Password": "l3ndf0undry"
            },
            "provider": {
            "Host": "192.168.1.13",
            "InboxLocation": "/nacha/inbox/",
            "OutboxLocation": "/nacha/outbox/",
            "Port": 2222,
            "Protocol": "sftp",
            "SshHostKey": "",
            "Username": "ach",
            "Password": "ach"
            },
            "fundingSources": [
            {
                "id": "crb",
                "Company": {
                "Id": "9088690560",
                "Name": "CRB RocketLoans",
                "EntryDescription": "TX RLM",
                "DiscretionaryData": "",
                "DescriptiveDate": "2015-11-30"
                },
                "ImmediateDestination": {
                "Name": "FEDERAL RESERVE BANK",
                "RoutingNumber": "061000146"
                },
                "ImmediateOrigin": {
                "Name": "CROSS RIVER BANK",
                "RoutingNumber": "021214862"
                },
                "Name": "CRB",
                "OriginatingDFI": "02121486"
            }
            ],
            "returnCodes": {
            "R01": "Insufficient funds",
            "R02": "Account closed",
            "R03": "No account/Unable to locate account",
            "R04": "Invalid account number",
            "R05": "Reserved",
            "R06": "Returned per ODFI's Request",
            "R07": "Authorization revoked by customer",
            "R08": "Payment stopped",
            "R09": "Uncollected funds",
            "R10": "Customer advises not authorized",
            "R11": "Check truncation entry return",
            "R12": "Branch sold to another RDFI",
            "R13": "RDFI not qualified to participate",
            "R14": "Representative payee deceased or unable to continue in that capacity",
            "R15": "Beneficiary or account holder deceased",
            "R16": "Account frozen",
            "R17": "File record edit criteria",
            "R18": "Improper effective entry date",
            "R19": "Amount field error",
            "R20": "Non-Transaction Account",
            "R21": "Invalid company identification",
            "R22": "Invalid individual ID number",
            "R23": "Credit entry refused by receiver",
            "R24": "Duplicate Entry",
            "R25": "Addenda error",
            "R26": "Mandatory field error",
            "R27": "Trace number error",
            "R28": "Transit routing number check digit error",
            "R29": "Corporate customer advises not authorized",
            "R30": "RDFI not participant in check truncation program",
            "R31": "Permissible Return Entry (CCD and CTX only)",
            "R32": "RDFI non-settlement",
            "R33": "Return of XCK Entry",
            "R34": "Limited participation RDFI",
            "R35": "Return of improper debit entry"
            },
            "fundingSource": [
            {
                "id": "crb",
                "Company": {
                "Id": "9088690560",
                "Name": "CRB RocketLoans",
                "EntryDescription": "TX RLM",
                "DiscretionaryData": "",
                "DescriptiveDate": "2015-11-30"
                },
                "ImmediateDestination": {
                "Name": "FEDERAL RESERVE BANK",
                "RoutingNumber": "061000146"
                },
                "ImmediateOrigin": {
                "Name": "CROSS RIVER BANK",
                "RoutingNumber": "021214862"
                },
                "Name": "CRB",
                "OriginatingDFI": "02121486"
            }
            ],
            "achFileConfiguration": {
            "StoreACHReturnFile": true,
            "NachaFileUploadLocation": "/nacha/upload/",
            "NachaFileDownloadLocation": "/nacha/download/",
            "NachaFileDownloadArchiveLocation": "/nacha/upload/",
            "DefaultValue": {
                "PriorityCode": "01",
                "RecordSize": "094",
                "BlockingFactor": "10",
                "FormatCode": "1",
                "ServiceClassCode": "200"
            }
            },
            "globalConfiguration": {
            "NachaFileDownloadArchiveLocation": "/nacha/archive/",
            "NachaFileDownloadLocation": "/nacha/download/",
            "NachaFileUploadLocation": "/nacha/upload/",
            "StoreACHReturnFile": true
            }
        },
        "status-management": {
            "triggers": [
                {
                    "tenant" :  "my-tenant",
                    "cronExpression" :  "0 0/15 * 1/1 * ? *"
                }
            ]   
        },
        "loan-tape": {
            "loanTapeProjection": "LoanReferenceNumber:Client_Acct_ID,LoanReferenceNumber:_loan_num,OriginationDate:Contract_Date,FundingDate:funded,PurchaseDate:CRB_Sale_Date,PurchaseDate:trust_purchase_date,MaturityDate:Maturity_Date,Vintage,OriginationFicoScore:Origin_FICO_score_orig,UpdatedFicoScore:FICO_score_update,OriginationFeePercent:Origination_Fee_Pct,OriginationFeeAmount:Origination_Fee_$,LoanAmount:Loan_Amount,FundedAmount:Funded_Amount,InterestRate:Interest_Rate,Term,CampaignCode:campaign_code,RiskGrade:APL_SubGrade,MonthlyPayment:Monthly_pmt_amt,TrustInterestPurchased:Trust_Purchased_Interest,ReportDate:Report_date,SubPoolId:SubPool_ID,BeginningSubpoolId:beginning_subpool_id,DaysPastDue:Days_past_due,ChargeOffDate:Charge_off_date,ConfirmOfFraudDate:Confirm_of_Fraud_Date,BeginningPrincipalBalance:Beginning_Balance,LoanAmount:boarding_amt,Principal:principal_amt,PrincipalAdjustment:principal_adj,ChargedOffAmount:charged_off_amt,FraudAmount:fraud_amt,OwnershipTransfers:Ownership_Transfers,EndingPrincipalBalance:Ending_Balance,ErrorCheck:error_check,Interest:interest_pmt,InterestAdjustment:interest_adj,LateFeeAssessed:late_fee_assessed,LateFeePaid:late_fee_paid,NSFFeeAssessed:nsf_assessed,NSFFeePaid:nsf_paid,PastDueAmount:Past_due_amount,AverageDailyBalance:average_daily_balance,SimpleInterestAccrued:simple_interest_accrued,SimpleInterestAccruedLastMonth:simple_interest_accrued_last_month,CumulativeInterestPaid:cumul_interest_pmt",
            "transactionFeesCode": [
            {
                "code": "140",
                "name": "Fee (Other)"
            },
            {
                "code": "141",
                "name": "Reverse Fee (Other)"
            },
            {
                "code": "142",
                "name": "Origination Fee"
            },
            {
                "code": "143",
                "name": "Reverse Origination Fee"
            },
            {
                "code": "150",
                "name": "Late Fee"
            },
            {
                "code": "151",
                "name": "Reverse Late Fee"
            },
            {
                "code": "180",
                "name": "ACH Returned Fee"
            },
            {
                "code": "181",
                "name": "Reverse ACH Returned Fee"
            },
            {
                "code": "182",
                "name": "Check Returned Fee"
            },
            {
                "code": "183",
                "name": "Reverse Check Returned Fee"
            }
            ],
            "events": [
            {
                "name": "LoanOnboarded",
                "ReferenceNumber": "{Data.ReferenceNumber}"
            },
            {
                "name": "PaymentAdded",
                "ReferenceNumber": "{Data.loanReferenceNumber}"
            },
            {
                "name": "PaymentReceived",
                "ReferenceNumber": "{Data.loanReferenceNumber}"
            },
            {
                "name": "PaymentFailed",
                "ReferenceNumber": "{Data.loanReferenceNumber}"
            },
            {
                "name": "PaymentRetried",
                "ReferenceNumber": "{Data.loanReferenceNumber}"
            },
            {
                "name": "LoanTransactionAdded",
                "ReferenceNumber": "{Data.LoanReference}"
            },
            {
                "name": "LoanTapeRefreshRequested",
                "ReferenceNumber": "{Data.LoanReferenceNumber}",
                "ReferenceDate": "{Data.ReferenceDate}"
            }
            ],
            "ficoScoreName": "ficoRiskScore09",
            "investorTapeProjection": "EntityName:Entity,LoanReferenceNumber:Loan Number,BorrowerLast:Borrower Last,BorrowerFirst:Borrower First,State,ZipCode,OriginalBalance:Original Balance,OriginalTerm:Original Term,InterestRate:Interest Rate,MonthlyPayment:Monthly Payment,RiskGrade:Risk Grade,FicoAtOrigination:FICO at Origination,LatestObservedFICO:Latest Observed FICO,DTIAtOrigination:DTI at Origination,MonthlyIncomeAtOrigination:Monthly Income at Origination,LoanPurpose:Loan Purpose,HomeOwnership:Home Ownership,OriginationDate:Origination Date,EllingtonPurchaseDate:Ellington Purchase Date,MonthOfServicingReport:Month of Servicing Report,BeginningPrincipalBalance:Beginning Principal Balance,PrincipalPaidDuringThePeriod:Principal Paid during the period,InterestPaidDuringThePeriod:Interest Paid during the period,FeesPaidDuringThePeriod:Fees Paid during the period,SchedulePaymentDueInPeriod:Schedul Pmt due in period,DateOfLastPaymentReceived:Date of Last Payment Received,LoanStatus:Loan Status,DaysDelinquent:Days Delinquent,EndingPrincipalBalance:Ending Principal Balance,LoanAge:Loan Age,PrincipalChargedOff:Principal Charged Off,PrincipalRecovery:Principal Recovery,LastPaymentDueDate:Last Payment Due Date,NextPaymentDueDate:Next Payment Due Date,LoanModified:Loan Modified?,ServicingFeeAccrued:Servicing Fee Accrued"
        },
        "loans-activity-history": {
            "mappings": [
            {
                "name": "LoanActivityLogged",
                "title": "{Data.activityType}",
                "description": "{Data.notes}",
                "loanReferenceNumber": "{Data.loanReference}"
            }
            ]
        },
        "accounting": {
            "mappings": {
            "103": {
                "AA-AA-000-1012-000": "D",
                "AA-AA-001-4999-706": "C"
            },
            "142": {
                "AA-00-000-1213-000": "D",
                "AA-AA-001-4010.706": "C"
            },
            "150": {
                "AA-AA-000-1012-000": "D",
                "AA-AA-001-4999-706": "C"
            },
            "180": {
                "AA-AA-000-1012-000": "D",
                "AA-AA-001-4999-706": "C"
            },
            "190": {
                "AA-AA-000-1012-000": "D",
                "AA-AA-001-4650-706": "C"
            }
            },
            "source": "GJ",
            "fileProjection": "BatchId:BatchID,Date:TranDate,Source:SrcDoc,Reference,Account,Debit,Credit,TransactionId:Distref,Particulars",
            "serviceFeeCode": "190",
            "reference": "SIGMA",
            "fileNamePrefix": "MT",
            "serviceFeeDescription": "Origination Fee",
            "batchIdPrefix": "SG",
            "accounts": {
            "AA-AA-000-1012-000": "Chase Bank",
            "AA-00-000-1213-000": "Origination Fee Receivable",
            "AA-AA-001-4650-706": "Loan Servicing Fees",
            "AA-AA-001-4010.706": "Origination Fees",
            "AA-AA-001-4999-706": "Miscellaneous Income",
            "AA-AA-001-4781-706": "Shared Investor Premium",
            "AA-AA-001-4780-706": "Shared Interest Fee"
            },
            "annualServiceFeeRate": "0.011"
        },
        "search-indexer": {
            "events": [
            {
                "Name": "LoanOnboarded",
                "LoanReferenceNumber": "{Data.ReferenceNumber}"
            },
            {
                "Name": "PaymentAdded",
                "LoanReferenceNumber": "{Data.LoanReferenceNumber}"
            },
            {
                "Name": "PaymentReceived",
                "LoanReferenceNumber": "{Data.LoanReferenceNumber}"
            },
            {
                "Name": "PaymentFailed",
                "LoanReferenceNumber": "{Data.LoanReferenceNumber}"
            },
            {
                "Name": "PaymentRetried",
                "LoanReferenceNumber": "{Data.LoanReferenceNumber}"
            },
            {
                "Name": "LoanTransactionAdded",
                "LoanReferenceNumber": "{Data.LoanReference}"
            },
            {
                "Name": "SearchUpdateRequested",
                "LoanReferenceNumber": "{Data.LoanReferenceNumber}"
            }
            ]
        },
        "loan-filters": {
            "events": [
            {
                "Name": "LoanUpdated",
                "LoanReferenceNumber": "{Data.ReferenceNumber}"
            },
            {
                "Name": "LoanRefreshRequested",
                "LoanReferenceNumber": "{Data.ReferenceNumber}"
            },
            {
                "Name": "LoanOnboarded",
                "LoanReferenceNumber": "{Data.ReferenceNumber}"
            },
            {
                "Name": "PaymentAdded",
                "LoanReferenceNumber": "{Data.LoanReferenceNumber}"
            },
            {
                "Name": "PaymentFailed",
                "LoanReferenceNumber": "{Data.LoanReferenceNumber}"
            },
            {
                "Name": "PaymentReceived",
                "LoanReferenceNumber": "{Data.LoanReferenceNumber}"
            }
            ]
        },
        "loan-backup": {
            "pageSize": "10",
            "events": [
            {
                "Name": "LoanOnboarded",
                "LoanReferenceNumber": "{Data.ReferenceNumber}"
            },
            {
                "Name": "LoanBackupRequested",
                "LoanReferenceNumber": "{Data.LoanReferenceNumber}"
            },
            {
                "Name": "LoanUpdated",
                "LoanReferenceNumber": "{Data.ReferenceNumber}"
            },
            {
                "Name": "PaymentAdded",
                "LoanReferenceNumber": "{Data.LoanReferenceNumber}"
            },
            {
                "Name": "PaymentFailed",
                "LoanReferenceNumber": "{Data.LoanReferenceNumber}"
            },
            {
                "Name": "PaymentReceived",
                "LoanReferenceNumber": "{Data.LoanReferenceNumber}"
            },
            {
                "Name": "PaymentRetried",
                "LoanReferenceNumber": "{Data.LoanReferenceNumber}"
            },
            {
                "Name": "LoanTransactionAdded",
                "LoanReferenceNumber": "{Data.LoanReference}"
            },
            {
                "Name": "SearchUpdateRequested",
                "LoanReferenceNumber": "{Data.LoanReferenceNumber}"
            },
            {
                "Name": "LoanActivityLogged",
                "LoanReferenceNumber": "{Data.LoanReferenceNumber}"
            }
            ]
        },
        "loans-transactionslog": {
            "transactions": [
                {
                    "code": 100,
                    "description": "Principal Advance"
                },
                {
                    "code": 101,
                    "description": "Reverse Principal Advance"
                },
                {
                    "code": 120,
                    "description": "Principal"
                },
                {
                    "code": 121,
                    "description": "Reverse Principal Billing"
                },
                {
                    "code": 122,
                    "description": "Interest Billing"
                },
                {
                    "code": 123,
                    "description": "Reverse Interest Billing"
                },
                {
                    "code": 124,
                    "description": "Principal and Interest"
                },
                {
                    "code": 125,
                    "description": "Reverse Principal and Interest Billing"
                },
                {
                    "code": 126,
                    "description": "Principal Balloon Billing"
                },
                {
                    "code": 127,
                    "description": "Reverse Principal Balloon Billing"
                },
                {
                    "code": 150,
                    "description": "Late Fee"
                },
                {
                    "code": 151,
                    "description": "Reverse Late Fee"
                },
                {
                    "code": 180,
                    "description": "NSF Fee"
                },
                {
                    "code": 181,
                    "description": "Reverse NSF Fee "
                },
                {
                    "code": 200,
                    "description": "Principal Payment"
                },
                {
                    "code": 201,
                    "description": "Reverse Principal Payment"
                },
                {
                    "code": 202,
                    "description": "Interest Payment"
                },
                {
                    "code": 203,
                    "description": "Reverse Interest Payment"
                },
                {
                    "code": 204,
                    "description": "P+I Principal Payment"
                },
                {
                    "code": 205,
                    "description": "Reverse P+I Principal Payment"
                },
                {
                    "code": 206,
                    "description": "P+I Interest Payment"
                },
                {
                    "code": 207,
                    "description": "Reverse P+I Interest Payment"
                },
                {
                    "code": 208,
                    "description": "Principal Balloon Payment"
                },
                {
                    "code": 209,
                    "description": "Reverse Principal Balloon Payment"
                },
                {
                    "code": 220,
                    "description": "Principal Reduction"
                },
                {
                    "code": 221,
                    "description": "Reverse Principal Reduction"
                },
                {
                    "code": 222,
                    "description": "Interest Reduction"
                },
                {
                    "code": 223,
                    "description": "Reverse Interest Reduction"
                },
                {
                    "code": 250,
                    "description": "Late Fee Payment"
                },
                {
                    "code": 251,
                    "description": "Reverse Late Fee Payment"
                },
                {
                    "code": 280,
                    "description": "NSF Fee Payment"
                },
                {
                    "code": 281,
                    "description": "Reverse NSF Fee Payment"
                },
                {
                    "code": 306,
                    "description": "Capitalize Overpaid Interest"
                },
                {
                    "code": 307,
                    "description": "Reverse Capitalize Overpaid Interest"
                },
                {
                    "code": 312,
                    "description": "Capitalize Interest"
                },
                {
                    "code": 313,
                    "description": "Reverse Capitalize Interest"
                },
                {
                    "code": 400,
                    "description": "Beg Bal Principal Advance"
                },
                {
                    "code": 401,
                    "description": "Reverse Beg Bal Principal Advance"
                },
                {
                    "code": 440,
                    "description": "Write Off Principal"
                },
                {
                    "code": 441,
                    "description": "Reverse Write Off Principal"
                },
                {
                    "code": 444,
                    "description": "Write Off Interest"
                },
                {
                    "code": 445,
                    "description": "Reverse Write Off Interest"
                },
                {
                    "code": 448,
                    "description": "Write Off Late Fees"
                },
                {
                    "code": 449,
                    "description": "Reverse Write Off Late Fees"
                },
                {
                    "code": 452,
                    "description": "Write Off Fees"
                },
                {
                    "code": 453,
                    "description": "Reverse Write Off Fees"
                },
                {
                    "code": 454,
                    "description": "Write Off Deferred Interest"
                },
                {
                    "code": 455,
                    "description": "Reverse Write Off Deferred Interest"
                },
                {
                    "code": 460,
                    "description": "Suspense"
                },
                {
                    "code": 461,
                    "description": "Reverse Suspense"
                },
                {
                    "code": 462,
                    "description": "Suspense Distribution"
                },
                {
                    "code": 463,
                    "description": "Reverse Suspense Distribution"
                },
                {
                    "code": 464,
                    "description": "Suspense Refund"
                },
                {
                    "code": 465,
                    "description": "Reverse Suspense Refund"
                },
                {
                    "code": 486,
                    "description": "Write Off Pmt Processing"
                },
                {
                    "code": 487,
                    "description": "Reverse Write Off Pmt Processing"
                },
                {
                    "code": 626,
                    "description": "Forbearance Fee Billing"
                },
                {
                    "code": 627,
                    "description": "Reverse Forbearance Fee Billing"
                },
                {
                    "code": 628,
                    "description": "Forbearance Fee Payment"
                },
                {
                    "code": 629,
                    "description": "Reverse Forbearance Fee Payment"
                },
                {
                    "code": 724,
                    "description": "Mod/Ext Fee"
                },
                {
                    "code": 725,
                    "description": "Reverse Modification Fee"
                },
                {
                    "code": 726,
                    "description": "Mod/Ext Fee Payment"
                },
                {
                    "code": 727,
                    "description": "Reverse Modification Fee Payment"
                },
                {
                    "code": 940,
                    "description": "Write Off Principal (No 1099)"
                },
                {
                    "code": 941,
                    "description": "Reverse Write Off Principal"
                },
                {
                    "code": 944,
                    "description": "Write Off Interest (No 1099)"
                },
                {
                    "code": 945,
                    "description": "Reverse Write Off Interest (No 1099)"
                },
                {
                    "code": 948,
                    "description": "Write Off Late Fees (No 1099)"
                },
                {
                    "code": 949,
                    "description": "Reverse Write Off Late Fees (No 1099)"
                },
                {
                    "code": 952,
                    "description": "Write Off Fees (No 1099)"
                },
                {
                    "code": 953,
                    "description": "Reverse Write Off Fees (No 1099)"
                },
                {
                    "code": 988,
                    "description": "Write Off NSF Fees (No 1099)"
                },
                {
                    "code": 989,
                    "description": "Reverse Write Off NSF Fees (No 1099)"
                },
                {
                    "code": 102,
                    "description": "Payment Processing Fee"
                },
                {
                    "code": 102,
                    "description": "Reverse Payment Processing Fee"
                },
                {
                    "code": 102,
                    "description": "Payment Processing Fee Pmt"
                },
                {
                    "code": 102,
                    "description": "Reverse Payment Processing Fee Pmt"
                }
            ]
        }
    }
}